ADMIN|FAIL|2020-01-22 04:43:25|X|BAD|172.16.0.1|Mozilla/5.0 (Windows NT 6.3; Win64; x64) AppleWebKit/537.36 (KHTML, like Gecko) Chrome/79.0.3945.130 Safari/537.36|
ADMIN|FAIL|2020-01-22 04:43:43|X|BAD|172.16.0.1|Mozilla/5.0 (Windows NT 6.3; Win64; x64) AppleWebKit/537.36 (KHTML, like Gecko) Chrome/79.0.3945.130 Safari/537.36|
ADMIN|FAIL|2020-01-22 04:43:47|X|BAD|172.16.0.1|Mozilla/5.0 (Windows NT 6.3; Win64; x64) AppleWebKit/537.36 (KHTML, like Gecko) Chrome/79.0.3945.130 Safari/537.36|
ADMIN|FAIL|2020-01-24 14:08:36|X|BAD|192.168.1.150|Mozilla/5.0 (Windows NT 6.1; Win64; x64) AppleWebKit/537.36 (KHTML, like Gecko) Chrome/79.0.3945.130 Safari/537.36|
ADMIN|FAIL|2020-01-24 14:08:39|X|BAD|192.168.1.150|Mozilla/5.0 (Windows NT 6.1; Win64; x64) AppleWebKit/537.36 (KHTML, like Gecko) Chrome/79.0.3945.130 Safari/537.36|
ADMIN|FAIL|2020-01-24 14:46:31|X|BAD|192.168.1.19|Mozilla/5.0 (Windows NT 10.0; Win64; x64) AppleWebKit/537.36 (KHTML, like Gecko) Chrome/79.0.3945.117 Safari/537.36|
ADMIN|FAIL|2020-01-24 14:46:33|X|BAD|192.168.1.19|Mozilla/5.0 (Windows NT 10.0; Win64; x64) AppleWebKit/537.36 (KHTML, like Gecko) Chrome/79.0.3945.117 Safari/537.36|
ADMIN|FAIL|2020-01-24 15:51:35|X|BAD|192.168.1.120|Mozilla/5.0 (Windows NT 6.1; WOW64) AppleWebKit/537.36 (KHTML, like Gecko) Chrome/79.0.3945.117 Safari/537.36|
ADMIN|FAIL|2020-01-24 15:51:36|X|BAD|192.168.1.120|Mozilla/5.0 (Windows NT 6.1; WOW64) AppleWebKit/537.36 (KHTML, like Gecko) Chrome/79.0.3945.117 Safari/537.36|
ADMIN|FAIL|2020-01-24 15:51:36|X|BAD|192.168.1.120|Mozilla/5.0 (Windows NT 6.1; WOW64) AppleWebKit/537.36 (KHTML, like Gecko) Chrome/79.0.3945.117 Safari/537.36|
ADMIN|FAIL|2020-01-24 15:51:36|X|BAD|192.168.1.120|Mozilla/5.0 (Windows NT 6.1; WOW64) AppleWebKit/537.36 (KHTML, like Gecko) Chrome/79.0.3945.117 Safari/537.36|
ADMIN|FAIL|2020-02-13 07:35:34|X|BAD|172.16.0.1|Mozilla/5.0 (Windows NT 6.3; Win64; x64) AppleWebKit/537.36 (KHTML, like Gecko) Chrome/79.0.3945.130 Safari/537.36|
ADMIN|FAIL|2020-02-13 07:36:11|X|BAD|172.16.0.1|Mozilla/5.0 (Windows NT 6.3; Win64; x64) AppleWebKit/537.36 (KHTML, like Gecko) Chrome/79.0.3945.130 Safari/537.36|
ADMIN|FAIL|2020-02-13 07:36:14|X|BAD|172.16.0.1|Mozilla/5.0 (Windows NT 6.3; Win64; x64) AppleWebKit/537.36 (KHTML, like Gecko) Chrome/79.0.3945.130 Safari/537.36|
ADMIN|FAIL|2020-02-13 07:37:02|X|BAD|172.16.0.1|Mozilla/5.0 (Windows NT 6.3; Win64; x64) AppleWebKit/537.36 (KHTML, like Gecko) Chrome/79.0.3945.130 Safari/537.36|
ADMIN|FAIL|2020-02-13 07:37:23|X|BAD|172.16.0.1|Mozilla/5.0 (Windows NT 6.3; Win64; x64) AppleWebKit/537.36 (KHTML, like Gecko) Chrome/79.0.3945.130 Safari/537.36|
ADMIN|FAIL|2020-02-13 07:37:26|X|BAD|172.16.0.1|Mozilla/5.0 (Windows NT 6.3; Win64; x64) AppleWebKit/537.36 (KHTML, like Gecko) Chrome/79.0.3945.130 Safari/537.36|
ADMIN|FAIL|2020-04-07 13:12:51|X|BAD|172.16.0.1|Mozilla/5.0 (Windows NT 10.0; Win64; x64) AppleWebKit/537.36 (KHTML, like Gecko) Chrome/80.0.3987.163 Safari/537.36|
ADMIN|FAIL|2020-04-07 13:12:55|X|BAD|172.16.0.1|Mozilla/5.0 (Windows NT 10.0; Win64; x64) AppleWebKit/537.36 (KHTML, like Gecko) Chrome/80.0.3987.163 Safari/537.36|
ADMIN|FAIL|2020-07-14 11:51:40|X|BAD|172.16.0.1|Mozilla/5.0 (Windows NT 10.0; Win64; x64) AppleWebKit/537.36 (KHTML, like Gecko) Chrome/83.0.4103.116 Safari/537.36|
ADMIN|FAIL|2020-07-14 11:51:43|X|BAD|172.16.0.1|Mozilla/5.0 (Windows NT 10.0; Win64; x64) AppleWebKit/537.36 (KHTML, like Gecko) Chrome/83.0.4103.116 Safari/537.36|
ADMIN|FAIL|2020-07-14 11:51:49|X|BAD|172.16.0.1|Mozilla/5.0 (Windows NT 10.0; Win64; x64) AppleWebKit/537.36 (KHTML, like Gecko) Chrome/83.0.4103.116 Safari/537.36|
ADMIN|FAIL|2020-10-26 16:19:58|X|BAD|172.16.0.1|Mozilla/5.0 (Windows NT 6.1; Win64; x64) AppleWebKit/537.36 (KHTML, like Gecko) Chrome/86.0.4240.111 Safari/537.36|
ADMIN|FAIL|2020-10-26 16:19:59|X|BAD|172.16.0.1|Mozilla/5.0 (Windows NT 6.1; Win64; x64) AppleWebKit/537.36 (KHTML, like Gecko) Chrome/86.0.4240.111 Safari/537.36|
ADMIN|FAIL|2020-11-02 13:00:15|X|BAD|172.16.0.1|Mozilla/5.0 (Windows NT 10.0; Win64; x64) AppleWebKit/537.36 (KHTML, like Gecko) Chrome/86.0.4240.111 Safari/537.36|
ADMIN|FAIL|2020-11-02 13:00:17|X|BAD|172.16.0.1|Mozilla/5.0 (Windows NT 10.0; Win64; x64) AppleWebKit/537.36 (KHTML, like Gecko) Chrome/86.0.4240.111 Safari/537.36|
ADMIN|FAIL|2020-11-19 07:39:52|X|BAD|172.17.0.100|Mozilla/5.0 (Windows NT 10.0; Win64; x64) AppleWebKit/537.36 (KHTML, like Gecko) Chrome/86.0.4240.198 Safari/537.36|
ADMIN|FAIL|2020-11-19 07:39:57|X|BAD|172.17.0.100|Mozilla/5.0 (Windows NT 10.0; Win64; x64) AppleWebKit/537.36 (KHTML, like Gecko) Chrome/86.0.4240.198 Safari/537.36|
ADMIN|FAIL|2020-11-19 07:40:02|X|BAD|172.17.0.100|Mozilla/5.0 (Windows NT 10.0; Win64; x64) AppleWebKit/537.36 (KHTML, like Gecko) Chrome/86.0.4240.198 Safari/537.36|
ADMIN|FAIL|2021-03-24 11:38:41|X|BAD|193.46.254.171||
ADMIN|FAIL|2021-04-01 18:24:17|X|BAD|161.49.118.18|Mozilla/5.0 (Windows NT 6.1; Win64; x64) AppleWebKit/537.36 (KHTML, like Gecko) Chrome/89.0.4389.114 Safari/537.36|
ADMIN|FAIL|2021-04-02 04:01:35|X|BAD|171.25.193.25|Mozilla/5.0 (iPhone; CPU iPhone OS 14_4_2 like Mac OS X) AppleWebKit/605.1.15 (KHTML, like Gecko) Version/14.0 Mobile/15E148 Safari/605.1.15|
ADMIN|FAIL|2021-04-02 04:02:17|X|BAD|185.220.101.8|Mozilla/5.0 (iPhone; CPU iPhone OS 14_4_2 like Mac OS X) AppleWebKit/605.1.15 (KHTML, like Gecko) Version/14.0 Mobile/15E148 Safari/605.1.15|
ADMIN|FAIL|2021-04-06 04:24:46|X|BAD|122.53.217.170|Mozilla/5.0 (Windows NT 10.0; Win64; x64) AppleWebKit/537.36 (KHTML, like Gecko) Chrome/89.0.4389.114 Safari/537.36|
ADMIN|FAIL|2021-04-06 04:24:49|X|BAD|122.53.217.170|Mozilla/5.0 (Windows NT 10.0; Win64; x64) AppleWebKit/537.36 (KHTML, like Gecko) Chrome/89.0.4389.114 Safari/537.36|
ADMIN|FAIL|2021-04-06 12:49:24|X|BAD|161.49.118.18|Mozilla/5.0 (Windows NT 6.1; Win64; x64) AppleWebKit/537.36 (KHTML, like Gecko) Chrome/87.0.4280.141 Safari/537.36 OPR/73.0.3856.424|
ADMIN|FAIL|2021-04-06 12:49:30|X|BAD|161.49.118.18|Mozilla/5.0 (Windows NT 6.1; Win64; x64) AppleWebKit/537.36 (KHTML, like Gecko) Chrome/87.0.4280.141 Safari/537.36 OPR/73.0.3856.424|
ADMIN|FAIL|2021-04-06 12:49:31|X|BAD|161.49.118.18|Mozilla/5.0 (Windows NT 6.1; Win64; x64) AppleWebKit/537.36 (KHTML, like Gecko) Chrome/87.0.4280.141 Safari/537.36 OPR/73.0.3856.424|
ADMIN|FAIL|2021-04-07 17:08:48|X|BAD|23.148.145.29||
ADMIN|FAIL|2021-04-07 18:35:57|X|BAD|23.148.145.29||
ADMIN|FAIL|2021-04-08 15:49:36|X|BAD|23.148.145.29||
ADMIN|FAIL|2021-04-08 17:15:51|X|BAD|23.148.145.29||
ADMIN|FAIL|2021-04-12 16:43:28|X|BAD|23.148.145.29||
ADMIN|FAIL|2021-04-21 18:18:13|X|BAD|23.148.145.29||
ADMIN|FAIL|2021-04-22 13:55:30|X|BAD|161.49.118.18|Mozilla/5.0 (Windows NT 6.1; Win64; x64) AppleWebKit/537.36 (KHTML, like Gecko) Chrome/87.0.4280.141 Safari/537.36 OPR/73.0.3856.438|
ADMIN|FAIL|2021-04-22 13:55:36|X|BAD|161.49.118.18|Mozilla/5.0 (Windows NT 6.1; Win64; x64) AppleWebKit/537.36 (KHTML, like Gecko) Chrome/87.0.4280.141 Safari/537.36 OPR/73.0.3856.438|
ADMIN|FAIL|2021-04-25 07:44:25|X|BAD|23.148.145.29||
ADMIN|FAIL|2021-04-25 07:47:18|X|BAD|23.148.145.29||
ADMIN|FAIL|2021-04-28 17:07:44|X|BAD|23.148.145.29||
ADMIN|FAIL|2021-05-03 20:06:26|X|BAD|23.148.145.29||
ADMIN|FAIL|2021-05-05 09:27:42|X|BAD|23.148.145.29||
ADMIN|FAIL|2021-05-22 11:27:40|X|BAD|23.148.145.29||
ADMIN|FAIL|2021-05-25 19:46:06|X|BAD|23.148.145.29||
ADMIN|FAIL|2021-05-26 23:09:44|X|BAD|163.116.200.117|Mozilla/5.0 (Windows NT 10.0; Win64; x64) AppleWebKit/537.36 (KHTML, like Gecko) Chrome/91.0.4472.77 Safari/537.36|
ADMIN|FAIL|2021-05-26 23:09:46|X|BAD|163.116.200.117|Mozilla/5.0 (Windows NT 10.0; Win64; x64) AppleWebKit/537.36 (KHTML, like Gecko) Chrome/91.0.4472.77 Safari/537.36|
ADMIN|FAIL|2021-05-27 18:49:27|X|BAD|23.148.145.29||
