
System logo  	  Reports Reports  	  Users Users  	  Campaigns Campaigns  	  Lists Lists  	  Scripts Scripts  	  Filters Filters  	  Inbound Inbound  	  User Groups User Groups  	  Remote Agents Remote Agents  	  Admin Admin  
Lead file:	Leads - 359k filter US for upload 10k_list_60110.csv
List ID Override:	60110
Phone Code Override:	1
USA-Canada Check:	PREFIX_AREACODE
Lead Duplicate Check:	DUPCAMP
Lead Time Zone Lookup:	AREA
Load Another Lead File         VERSION: 2.14-49     BUILD: 170409-1534




Processing file...

LIST ID OVERRIDE FOR THIS FILE: 60110



PHONE CODE OVERRIDE FOR THIS FILE: 1


record 0 BAD- PHONE: ROW: |60110| INV:
record 20 BAD- PHONE: 7538809559 ROW: |0| INV: 7538809559
record 40 BAD- PHONE: 2393488949 ROW: |1| DUP: 1 60109
record 180 BAD- PHONE: 7030335178 ROW: |60110| INV: 7030335178
record 195 BAD- PHONE: 8454698675 ROW: |1| DUP: 1 60108
record 202 BAD- PHONE: 6421911603 ROW: |60110| INV: 6421911603
record 223 BAD- PHONE: 8477913995 ROW: |1| DUP: 1 60107
record 241 BAD- PHONE: 2104543256 ROW: |1| DUP: 1 60109
record 246 BAD- PHONE: 2142329232 ROW: |1| DUP: 1 60108
record 273 BAD- PHONE: 2393541516 ROW: |1| DUP: 1 60106
record 311 BAD- PHONE: 7917296379 ROW: |0| INV: 7917296379
record 343 BAD- PHONE: 7943308909 ROW: |0| INV: 7943308909
record 435 BAD- PHONE: 7957227773 ROW: |0| INV: 7957227773
record 578 BAD- PHONE: 9547618636 ROW: |1| DUP: 1 60101
record 600 BAD- PHONE: 2027235955 ROW: |1| DUP: 1 60106
record 609 BAD- PHONE: 4076290347 ROW: |1| DUP: 1 60102
record 696 BAD- PHONE: 7903851141 ROW: |0| INV: 7903851141
record 714 BAD- PHONE: 8605895847 ROW: |1| DUP: 1 60107
record 723 BAD- PHONE: 3057134188 ROW: |1| DUP: 1 60104
record 803 BAD- PHONE: 2142729680 ROW: |1| DUP: 1 60109
record 834 BAD- PHONE: 3226340214 ROW: |0| INV: 3226340214
record 846 BAD- PHONE: 2063251542 ROW: |1| DUP: 1 60108
record 891 BAD- PHONE: 2139489527 ROW: |1| DUP: 1 60108
record 902 BAD- PHONE: 2085294627 ROW: |1| DUP: 1 60106
record 1009 BAD- PHONE: 7710261049 ROW: |60110| INV: 7710261049
record 1031 BAD- PHONE: 2065250359 ROW: |1| DUP: 1 60106
record 1074 BAD- PHONE: 5407520089 ROW: |1| DUP: 1 60102
record 1079 BAD- PHONE: 2143567433 ROW: |1| DUP: 1 60110
record 1085 BAD- PHONE: 8609337370 ROW: |1| DUP: 1 60102
record 1120 BAD- PHONE: 7949111129 ROW: |0| INV: 7949111129
record 1137 BAD- PHONE: 2064846800 ROW: |1| DUP: 1 60106
record 1214 BAD- PHONE: 6318589439 ROW: |1| DUP: 1 60106
record 1229 BAD- PHONE: 8654297797 ROW: |1| DUP: 1 60108
record 1246 BAD- PHONE: 7891072243 ROW: |60110| INV: 7891072243
record 1316 BAD- PHONE: 8654069414 ROW: |1| DUP: 1 60107
record 1323 BAD- PHONE: 3044876599 ROW: |1| DUP: 1 60107
record 1355 BAD- PHONE: 8455692290 ROW: |1| DUP: 1 60107
record 1470 BAD- PHONE: 7957536355 ROW: |0| INV: 7957536355
record 1488 BAD- PHONE: 8585878299 ROW: |1| DUP: 1 60108
record 1498 BAD- PHONE: 5031234321 ROW: |60110| INV: 5031234321
record 1537 BAD- PHONE: 8453216584 ROW: |1| DUP: 1 60109
record 1675 BAD- PHONE: 5016173611 ROW: |1| DUP: 1 60106
record 1706 BAD- PHONE: 7977467903 ROW: |0| INV: 7977467903
record 1743 BAD- PHONE: 3022844102 ROW: |1| DUP: 1 60109
record 1773 BAD- PHONE: 8644511276 ROW: |1| DUP: 1 60104
record 1839 BAD- PHONE: 2065541217 ROW: |1| DUP: 1 60107
record 1875 BAD- PHONE: 6509651033 ROW: |1| DUP: 1 60106
record 1926 BAD- PHONE: 8478550020 ROW: |1| DUP: 1 60107
record 1929 BAD- PHONE: 2062508315 ROW: |1| DUP: 1 60108
record 1944 BAD- PHONE: 6434421972 ROW: |0| INV: 6434421972
record 1960 BAD- PHONE: 7079954062 ROW: |1| DUP: 1 60106
record 1965 BAD- PHONE: 9043724317 ROW: |1| DUP: 1 60106
record 1975 BAD- PHONE: 9892833296 ROW: |1| DUP: 1 60108
record 2064 BAD- PHONE: 7711021071 ROW: |60110| INV: 7711021071
record 2174 BAD- PHONE: 8431964843 ROW: |60110| INV: 8431964843
record 2203 BAD- PHONE: 9060853139 ROW: |60110| INV: 9060853139
record 2210 BAD- PHONE: 7502005796 ROW: |0| INV: 7502005796
record 2215 BAD- PHONE: 2024916354 ROW: |1| DUP: 1 60107
record 2220 BAD- PHONE: 3363278262 ROW: |1| DUP: 1 60110
record 2231 BAD- PHONE: 4078793737 ROW: |1| DUP: 1 60109
record 2233 BAD- PHONE: 7347752813 ROW: |1| DUP: 1 60108
record 2238 BAD- PHONE: 6590531925 ROW: |60110| INV: 6590531925
record 2247 BAD- PHONE: 3226609826 ROW: |0| INV: 3226609826
record 2311 BAD- PHONE: 4102538883 ROW: |1| DUP: 1 60108
record 2349 BAD- PHONE: 6027577434 ROW: |1| DUP: 1 60106
record 2437 BAD- PHONE: 9613434731 ROW: |0| INV: 9613434731
record 2477 BAD- PHONE: 8645904546 ROW: |1| DUP: 1 60108
record 2489 BAD- PHONE: 3092560592 ROW: |1| DUP: 1 60106
record 2750 BAD- PHONE: 2062164105 ROW: |1| DUP: 1 60109
record 2837 BAD- PHONE: 9178054869 ROW: |1| DUP: 1 60105
record 2855 BAD- PHONE: 9818480619 ROW: |0| INV: 9818480619
record 2887 BAD- PHONE: 7850471227 ROW: |60110| INV: 7850471227
record 2891 BAD- PHONE: 2063253842 ROW: |1| DUP: 1 60109
record 2899 BAD- PHONE: 7760559580 ROW: |60110| INV: 7760559580
record 2992 BAD- PHONE: 2109131102 ROW: |1| DUP: 1 60109
record 3044 BAD- PHONE: 2062320198 ROW: |1| DUP: 1 60107
record 3056 BAD- PHONE: 7910669937 ROW: |60110| INV: 7910669937
record 3059 BAD- PHONE: 3018027241 ROW: |1| DUP: 1 60109
record 3138 BAD- PHONE: 8624851213 ROW: |1| DUP: 1 60106
record 3198 BAD- PHONE: 8603466749 ROW: |1| DUP: 1 60107
record 3206 BAD- PHONE: 5418785040 ROW: |1| DUP: 1 60108
record 3298 BAD- PHONE: 6427337866 ROW: |0| INV: 6427337866
record 3301 BAD- PHONE: 7534219254 ROW: |0| INV: 7534219254
record 3331 BAD- PHONE: 7705734157 ROW: |1| DUP: 1 60106
record 3407 BAD- PHONE: 2063078821 ROW: |1| DUP: 1 60107
record 3498 BAD- PHONE: 2392074120 ROW: |1| DUP: 1 60109
record 3513 BAD- PHONE: 7740113206 ROW: |60110| INV: 7740113206
record 3527 BAD- PHONE: 8479228789 ROW: |1| DUP: 1 60109
record 3575 BAD- PHONE: 6445671513 ROW: |0| INV: 6445671513
record 3675 BAD- PHONE: 6590114173 ROW: |60110| INV: 6590114173
record 3739 BAD- PHONE: 2143789634 ROW: |1| DUP: 1 60110
record 3748 BAD- PHONE: 9522208433 ROW: |1| DUP: 1 60107
record 3762 BAD- PHONE: 5417736422 ROW: |1| DUP: 1 60105
record 3819 BAD- PHONE: 6037635349 ROW: |1| DUP: 1 60107
record 3834 BAD- PHONE: 2063308512 ROW: |1| DUP: 1 60108
record 3839 BAD- PHONE: 7976282477 ROW: |0| INV: 7976282477
record 3871 BAD- PHONE: 7032214276 ROW: |1| DUP: 1 60106
record 3921 BAD- PHONE: 9046165730 ROW: |1| DUP: 1 60108
record 3952 BAD- PHONE: 7838143690 ROW: |0| INV: 7838143690
record 3996 BAD- PHONE: 7599388074 ROW: |0| INV: 7599388074
record 3999 BAD- PHONE: 9092399225 ROW: |1| DUP: 1 60104
record 4027 BAD- PHONE: 7955048045 ROW: |0| INV: 7955048045
record 4097 BAD- PHONE: 7939088064 ROW: |0| INV: 7939088064
record 4124 BAD- PHONE: 2077218699 ROW: |1| DUP: 1 60109
record 4174 BAD- PHONE: 2094641581 ROW: |1| DUP: 1 60107
record 4211 BAD- PHONE: 8608724117 ROW: |1| DUP: 1 60101
record 4214 BAD- PHONE: 7752400119 ROW: |1| DUP: 1 60107
record 4242 BAD- PHONE: 8328895201 ROW: |1| DUP: 1 60108
record 4275 BAD- PHONE: 2144353597 ROW: |1| DUP: 1 60109
record 4280 BAD- PHONE: 6148636643 ROW: |1| DUP: 1 60101
record 4338 BAD- PHONE: 2127444218 ROW: |1| DUP: 1 60105
record 4341 BAD- PHONE: 4746160297 ROW: |0| INV: 4746160297
record 4418 BAD- PHONE: 2065252287 ROW: |1| DUP: 1 60107
record 4424 BAD- PHONE: 9019211872 ROW: |1| DUP: 1 60109
record 4425 BAD- PHONE: 8436062120 ROW: |1| DUP: 1 60106
record 4426 BAD- PHONE: 2062362637 ROW: |1| DUP: 1 60107
record 4433 BAD- PHONE: 3022186674 ROW: |1| DUP: 1 60103
record 4439 BAD- PHONE: 9251282372 ROW: |60110| INV: 9251282372
record 4446 BAD- PHONE: 7077650702 ROW: |1| DUP: 1 60105
record 4457 BAD- PHONE: 3227712219 ROW: |0| INV: 3227712219
record 4513 BAD- PHONE: 3012570204 ROW: |1| DUP: 1 60108
record 4576 BAD- PHONE: 2319294789 ROW: |1| DUP: 1 60109
record 4583 BAD- PHONE: 9176769367 ROW: |1| DUP: 1 60109
record 4632 BAD- PHONE: 3016827148 ROW: |1| DUP: 1 60108
record 4635 BAD- PHONE: 3019046152 ROW: |1| DUP: 1 60106
record 4666 BAD- PHONE: 8028781048 ROW: |1| DUP: 1 60108
record 4705 BAD- PHONE: 7507065409 ROW: |0| INV: 7507065409
record 4730 BAD- PHONE: 3018818317 ROW: |1| DUP: 1 60110
record 4745 BAD- PHONE: 2127775318 ROW: |1| DUP: 1 60107
record 4825 BAD- PHONE: 7446899999 ROW: |0| INV: 7446899999
record 4889 BAD- PHONE: 3016725802 ROW: |1| DUP: 1 60106
record 4899 BAD- PHONE: 3052930713 ROW: |1| DUP: 1 60104
record 4915 BAD- PHONE: 4020000000 ROW: |60110| INV: 4020000000
record 4919 BAD- PHONE: 3017929151 ROW: |1| DUP: 1 60106
record 4923 BAD- PHONE: 7926847991 ROW: |0| INV: 7926847991
record 4938 BAD- PHONE: 4128211576 ROW: |1| DUP: 1 60106
record 4940 BAD- PHONE: 2076767952 ROW: |1| DUP: 1 60108
record 5065 BAD- PHONE: 9195565409 ROW: |1| DUP: 1 60109
record 5084 BAD- PHONE: 9788041629 ROW: |1| DUP: 1 60106
record 5122 BAD- PHONE: 9910956704 ROW: |60110| INV: 9910956704
record 5186 BAD- PHONE: 8503295294 ROW: |1| DUP: 1 60108
record 5196 BAD- PHONE: 7443179107 ROW: |0| INV: 7443179107
record 5224 BAD- PHONE: 3303251724 ROW: |1| DUP: 1 60108
record 5250 BAD- PHONE: 2144073307 ROW: |1| DUP: 1 60109
record 5386 BAD- PHONE: 2063627412 ROW: |1| DUP: 1 60109
record 5401 BAD- PHONE: 2403309887 ROW: |1| DUP: 1 60107
record 5420 BAD- PHONE: 2142842991 ROW: |1| DUP: 1 60109
record 5437 BAD- PHONE: 5093284272 ROW: |1| DUP: 1 60108
record 5444 BAD- PHONE: 2920865691 ROW: |60110| INV: 2920865691
record 5454 BAD- PHONE: 8564338756 ROW: |1| DUP: 1 60109
record 5462 BAD- PHONE: 2062910090 ROW: |1| DUP: 1 60106
record 5488 BAD- PHONE: 6513543870 ROW: |1| DUP: 1 60106
record 5551 BAD- PHONE: 9193760110 ROW: |1| DUP: 1 60108
record 5557 BAD- PHONE: 4526252525 ROW: |0| INV: 4526252525
record 5569 BAD- PHONE: 8656915409 ROW: |1| DUP: 1 60107
record 5580 BAD- PHONE: 8285822969 ROW: |1| DUP: 1 60109
record 5584 BAD- PHONE: 3239391677 ROW: |1| DUP: 1 60108
record 5588 BAD- PHONE: 7895537735 ROW: |0| INV: 7895537735
record 5667 BAD- PHONE: 9545303512 ROW: |1| DUP: 1 60109
record 5680 BAD- PHONE: 5622488361 ROW: |1| DUP: 1 60110
record 5722 BAD- PHONE: 2064278713 ROW: |1| DUP: 1 60106
record 5730 BAD- PHONE: 2138928348 ROW: |1| DUP: 1 60108
record 5737 BAD- PHONE: 8592776863 ROW: |1| DUP: 1 60107
record 5769 BAD- PHONE: 6434774533 ROW: |0| INV: 6434774533
record 5770 BAD- PHONE: 2317981122 ROW: |1| DUP: 1 60105
record 5774 BAD- PHONE: 5054894963 ROW: |1| DUP: 1 60101
record 5808 BAD- PHONE: 2016208995 ROW: |1| DUP: 1 60107
record 5818 BAD- PHONE: 2392217957 ROW: |1| DUP: 1 60108
record 5860 BAD- PHONE: 3018524342 ROW: |1| DUP: 1 60107
record 5925 BAD- PHONE: 2024360117 ROW: |1| DUP: 1 60109
record 5929 BAD- PHONE: 6434559247 ROW: |0| INV: 6434559247
record 5963 BAD- PHONE: 9014861933 ROW: |1| DUP: 1 60110
record 6019 BAD- PHONE: 3478371958 ROW: |1| DUP: 1 60107
record 6090 BAD- PHONE: 9259383808 ROW: |1| DUP: 1 60103
record 6150 BAD- PHONE: 2065439846 ROW: |1| DUP: 1 60107
record 6169 BAD- PHONE: 8178746786 ROW: |1| DUP: 1 60104
record 6187 BAD- PHONE: 8638595979 ROW: |1| DUP: 1 60110
record 6220 BAD- PHONE: 6436845602 ROW: |0| INV: 6436845602
record 6429 BAD- PHONE: 6507267976 ROW: |1| DUP: 1 60107
record 6430 BAD- PHONE: 9035053703 ROW: |1| DUP: 1 60106
record 6436 BAD- PHONE: 7765688875 ROW: |0| INV: 7765688875
record 6441 BAD- PHONE: 8009976030 ROW: |0| INV: 8009976030
record 6448 BAD- PHONE: 2317422875 ROW: |1| DUP: 1 60109
record 6475 BAD- PHONE: 2065541217 ROW: |1| DUP: 1 60107
record 6488 BAD- PHONE: 8455692290 ROW: |1| DUP: 1 60107
record 6495 BAD- PHONE: 5055310096 ROW: |1| DUP: 1 60109
record 6518 BAD- PHONE: 2348131262 ROW: |1| DUP: 1 60109
record 6604 BAD- PHONE: 8659451291 ROW: |1| DUP: 1 60108
record 6619 BAD- PHONE: 6432161877 ROW: |0| INV: 6432161877
record 6637 BAD- PHONE: 2062541628 ROW: |1| DUP: 1 60107
record 6653 BAD- PHONE: 7710005700 ROW: |60110| INV: 7710005700
record 6664 BAD- PHONE: 9892336342 ROW: |1| DUP: 1 60110
record 6673 BAD- PHONE: 2137841992 ROW: |1| DUP: 1 60108
record 6729 BAD- PHONE: 8605248161 ROW: |1| DUP: 1 60108
record 6750 BAD- PHONE: 3017747538 ROW: |1| DUP: 1 60110
record 6795 BAD- PHONE: 6433779618 ROW: |0| INV: 6433779618
record 6832 BAD- PHONE: 8136420138 ROW: |1| DUP: 1 60106
record 6873 BAD- PHONE: 7900152282 ROW: |60110| INV: 7900152282
record 6885 BAD- PHONE: 9104434910 ROW: |1| DUP: 1 60108
record 6913 BAD- PHONE: 6591072357 ROW: |60110| INV: 6591072357
record 6926 BAD- PHONE: 6304845381 ROW: |1| DUP: 1 60104
record 6960 BAD- PHONE: 4808316311 ROW: |1| DUP: 1 60109
record 6986 BAD- PHONE: 4198416178 ROW: |1| DUP: 1 60102
record 7037 BAD- PHONE: 3018690507 ROW: |1| DUP: 1 60106
record 7091 BAD- PHONE: 2126850196 ROW: |1| DUP: 1 60109
record 7095 BAD- PHONE: 3047573904 ROW: |1| DUP: 1 60106
record 7126 BAD- PHONE: 2394338009 ROW: |1| DUP: 1 60106
record 7133 BAD- PHONE: 6434792170 ROW: |0| INV: 6434792170
record 7135 BAD- PHONE: 6432488815 ROW: |0| INV: 6432488815
record 7175 BAD- PHONE: 2142120103 ROW: |1| DUP: 1 60108
record 7215 BAD- PHONE: 6449728465 ROW: |0| INV: 6449728465
record 7219 BAD- PHONE: 7895040604 ROW: |0| INV: 7895040604
record 7247 BAD- PHONE: 9149308938 ROW: |1| DUP: 1 60106
record 7338 BAD- PHONE: 2392541478 ROW: |1| DUP: 1 60107
record 7364 BAD- PHONE: 5705220070 ROW: |1| DUP: 1 60107
record 7391 BAD- PHONE: 5036225297 ROW: |1| DUP: 1 60110
record 7441 BAD- PHONE: 8592480286 ROW: |1| DUP: 1 60109
record 7472 BAD- PHONE: 7833697780 ROW: |0| INV: 7833697780
record 7522 BAD- PHONE: 7137790276 ROW: |1| DUP: 1 60107
record 7526 BAD- PHONE: 2064403217 ROW: |1| DUP: 1 60106
record 7528 BAD- PHONE: 8563474110 ROW: |1| DUP: 1 60109
record 7551 BAD- PHONE: 6436937517 ROW: |0| INV: 6436937517
record 7556 BAD- PHONE: 8606336659 ROW: |1| DUP: 1 60108
record 7594 BAD- PHONE: 2672102736 ROW: |1| DUP: 1 60105
record 7604 BAD- PHONE: 7049531387 ROW: |1| DUP: 1 60110
record 7690 BAD- PHONE: 4105669125 ROW: |1| DUP: 1 60108
record 7728 BAD- PHONE: 9187981306 ROW: |1| DUP: 1 60106
record 7756 BAD- PHONE: 9163542543 ROW: |1| DUP: 1 60107
record 7761 BAD- PHONE: 5203963085 ROW: |1| DUP: 1 60106
record 7791 BAD- PHONE: 2143763705 ROW: |1| DUP: 1 60107
record 7822 BAD- PHONE: 7447090266 ROW: |0| INV: 7447090266
record 7856 BAD- PHONE: 2103620938 ROW: |1| DUP: 1 60108
record 7860 BAD- PHONE: 3018299004 ROW: |1| DUP: 1 60107
record 7863 BAD- PHONE: 6504307526 ROW: |1| DUP: 1 60107
record 7901 BAD- PHONE: 2143152900 ROW: |1| DUP: 1 60110
record 8002 BAD- PHONE: 7973182334 ROW: |0| INV: 7973182334
record 8005 BAD- PHONE: 2762597714 ROW: |1| DUP: 1 60105
record 8007 BAD- PHONE: 3017497261 ROW: |1| DUP: 1 60110
record 8015 BAD- PHONE: 2059958860 ROW: |1| DUP: 1 60107
record 8045 BAD- PHONE: 6172548621 ROW: |1| DUP: 1 60108
record 8072 BAD- PHONE: 2027016004 ROW: |1| DUP: 1 60106
record 8095 BAD- PHONE: 2022628394 ROW: |1| DUP: 1 60107
record 8126 BAD- PHONE: 3528976657 ROW: |1| DUP: 1 60102
record 8141 BAD- PHONE: 7854753302 ROW: |1| DUP: 1 60107
record 8155 BAD- PHONE: 9136310083 ROW: |1| DUP: 1 60103
record 8186 BAD- PHONE: 7576531240 ROW: |1| DUP: 1 60110
record 8204 BAD- PHONE: 3472951068 ROW: |1| DUP: 1 60108
record 8256 BAD- PHONE: 7530895229 ROW: |60110| INV: 7530895229
record 8282 BAD- PHONE: 8053028635 ROW: |1| DUP: 1 60107
record 8409 BAD- PHONE: 7929913786 ROW: |0| INV: 7929913786
record 8421 BAD- PHONE: 7949921075 ROW: |0| INV: 7949921075
record 8445 BAD- PHONE: 9184379623 ROW: |1| DUP: 1 60110
record 8463 BAD- PHONE: 4043705191 ROW: |1| DUP: 1 60108
record 8464 BAD- PHONE: 7323600595 ROW: |1| DUP: 1 60106
record 8466 BAD- PHONE: 8176552314 ROW: |1| DUP: 1 60110
record 8486 BAD- PHONE: 2063355511 ROW: |1| DUP: 1 60110
record 8547 BAD- PHONE: 6433526262 ROW: |0| INV: 6433526262
record 8585 BAD- PHONE: 6440001644 ROW: |60110| INV: 6440001644
record 8605 BAD- PHONE: 7717315707 ROW: |0| INV: 7717315707
record 8606 BAD- PHONE: 7721716637 ROW: |60110| INV: 7721716637
record 8636 BAD- PHONE: 9019218794 ROW: |1| DUP: 1 60107
record 8644 BAD- PHONE: 9042263773 ROW: |1| DUP: 1 60108
record 8659 BAD- PHONE: 7909991002 ROW: |0| INV: 7909991002
record 8686 BAD- PHONE: 3016017366 ROW: |1| DUP: 1 60108
record 8689 BAD- PHONE: 3103850461 ROW: |1| DUP: 1 60109
record 8745 BAD- PHONE: 8453238637 ROW: |1| DUP: 1 60107
record 8753 BAD- PHONE: 9523536532 ROW: |1| DUP: 1 60101
record 8820 BAD- PHONE: 2380319475 ROW: |60110| INV: 2380319475
record 8897 BAD- PHONE: 7920149149 ROW: |60110| INV: 7920149149
record 8916 BAD- PHONE: 3018300596 ROW: |1| DUP: 1 60108
record 8954 BAD- PHONE: 8047440160 ROW: |1| DUP: 1 60103
record 8955 BAD- PHONE: 9516762652 ROW: |1| DUP: 1 60108
record 8976 BAD- PHONE: 5415974649 ROW: |1| DUP: 1 60102
record 8993 BAD- PHONE: 7906021177 ROW: |0| INV: 7906021177
record 9032 BAD- PHONE: 2062802674 ROW: |1| DUP: 1 60106
record 9100 BAD- PHONE: 2155120234 ROW: |1| DUP: 1 60102
record 9116 BAD- PHONE: 8288916005 ROW: |1| DUP: 1 60108
record 9166 BAD- PHONE: 2062910090 ROW: |1| DUP: 1 60106
record 9327 BAD- PHONE: 7411421783 ROW: |60110| INV: 7411421783
record 9328 BAD- PHONE: 3304056319 ROW: |1| DUP: 1 60108
record 9331 BAD- PHONE: 3019046152 ROW: |1| DUP: 1 60106
record 9347 BAD- PHONE: 3017060991 ROW: |1| DUP: 1 60110
record 9416 BAD- PHONE: 2392872561 ROW: |1| DUP: 1 60107
record 9424 BAD- PHONE: 3018637830 ROW: |1| DUP: 1 60108
record 9427 BAD- PHONE: 7816862238 ROW: |1| DUP: 1 60106
record 9444 BAD- PHONE: 9174637333 ROW: |1| DUP: 1 60110
record 9461 BAD- PHONE: 6023214949 ROW: |1| DUP: 1 60110
record 9490 BAD- PHONE: 2818139680 ROW: |1| DUP: 1 60106
record 9492 BAD- PHONE: 3017310535 ROW: |1| DUP: 1 60110
record 9641 BAD- PHONE: 6439421420 ROW: |0| INV: 6439421420
record 9654 BAD- PHONE: 3018949541 ROW: |1| DUP: 1 60101
record 9739 BAD- PHONE: 9049642172 ROW: |1| DUP: 1 60107
record 9795 BAD- PHONE: 4077542278 ROW: |1| DUP: 1 60110
record 9817 BAD- PHONE: 8602884102 ROW: |1| DUP: 1 60109
record 9819 BAD- PHONE: 2318695038 ROW: |1| DUP: 1 60109
record 9850 BAD- PHONE: 3018083606 ROW: |1| DUP: 1 60108
record 9882 BAD- PHONE: 9045543905 ROW: |1| DUP: 1 60106
record 9890 BAD- PHONE: 7837026169 ROW: |0| INV: 7837026169
record 9904 BAD- PHONE: 3018742516 ROW: |1| DUP: 1 60106
record 9930 BAD- PHONE: 8655245498 ROW: |1| DUP: 1 60108
record 9940 BAD- PHONE: 7939630350 ROW: |0| INV: 7939630350
record 9950 BAD- PHONE: 3019258752 ROW: |1| DUP: 1 60108
record 9976 BAD- PHONE: 7535681364 ROW: |0| INV: 7535681364
record 9996 BAD- PHONE: 8507253605 ROW: |1| DUP: 1 60109

Done GOOD: 9696       BAD: 304       TOTAL: 10000